<?xml version="1.0" encoding="utf-8"?>
<!-- Generator: Adobe Illustrator 17.0.0, SVG Export Plug-In . SVG Version: 6.00 Build 0)  -->
<!DOCTYPE svg PUBLIC "-//W3C//DTD SVG 1.1//EN" "http://www.w3.org/Graphics/SVG/1.1/DTD/svg11.dtd">
<svg version="1.1" id="Layer_1" xmlns="http://www.w3.org/2000/svg" xmlns:xlink="http://www.w3.org/1999/xlink" x="0px" y="0px"
	 width="107.8px" height="107.8px" viewBox="0 0 107.8 107.8" enable-background="new 0 0 107.8 107.8" xml:space="preserve">
<g id="boom_2_">
	
		<circle fill="#E4EAE9" stroke="#2459A4" stroke-width="4" stroke-linecap="round" stroke-miterlimit="10" cx="53.868" cy="54.223" r="51.123"/>
	<g>
		<path fill="#2659A4" d="M16.079,37.973h5.469c2.199,0,3.89,0.261,5.071,0.783s2.115,1.323,2.801,2.404
			c0.685,1.081,1.027,2.282,1.027,3.602c0,1.232-0.301,2.354-0.9,3.366c-0.601,1.012-1.482,1.832-2.646,2.46
			c1.441,0.49,2.551,1.065,3.328,1.725c0.776,0.66,1.381,1.458,1.813,2.395c0.433,0.937,0.648,1.951,0.648,3.045
			c0,2.225-0.813,4.107-2.441,5.647s-3.812,2.31-6.552,2.31h-7.618V37.973z M18.795,40.689v8.881h1.587
			c1.927,0,3.345-0.179,4.251-0.538c0.907-0.358,1.626-0.924,2.154-1.697c0.529-0.773,0.794-1.631,0.794-2.574
			c0-1.27-0.444-2.266-1.332-2.989c-0.888-0.723-2.303-1.084-4.242-1.084H18.795z M18.795,52.36v10.634h3.438
			c2.027,0,3.513-0.198,4.457-0.594s1.703-1.015,2.276-1.857c0.572-0.842,0.859-1.753,0.859-2.734c0-1.232-0.403-2.307-1.209-3.224
			c-0.805-0.917-1.912-1.546-3.321-1.886c-0.945-0.226-2.589-0.339-4.932-0.339H18.795z"/>
	</g>
	<g>
		<path fill="#2659A4" d="M67.686,65.71l3.503-27.736h0.397l9.944,22.758l9.85-22.758h0.392l3.521,27.736h-2.397l-2.417-19.835
			L81.828,65.71h-0.625L72.45,45.723L70.047,65.71H67.686z"/>
	</g>
	<g>
		<path fill="#2659A4" d="M57.748,46.199c2.692,0,5.008,0.975,6.945,2.924c1.938,1.949,2.907,4.326,2.907,7.129
			c0,2.777-0.956,5.128-2.868,7.051c-1.912,1.923-4.231,2.885-6.959,2.885c-2.856,0-5.23-0.987-7.12-2.962
			c-1.891-1.975-2.835-4.322-2.835-7.039c0-1.82,0.439-3.493,1.32-5.02c0.88-1.527,2.091-2.736,3.631-3.629
			C54.311,46.645,55.97,46.199,57.748,46.199z M57.709,49.744c-1.762,0-3.242,0.613-4.442,1.837c-1.2,1.225-1.8,2.782-1.8,4.671
			c0,2.104,0.755,3.769,2.267,4.994c1.174,0.958,2.521,1.437,4.04,1.437c1.719,0,3.182-0.621,4.391-1.863s1.813-2.773,1.813-4.593
			c0-1.812-0.609-3.345-1.826-4.6C60.934,50.372,59.453,49.744,57.709,49.744z"/>
	</g>
	<g>
		<path fill="#2659A4" d="M42.565,46.199c2.692,0,5.008,0.975,6.945,2.924s2.907,4.326,2.907,7.129c0,2.777-0.956,5.128-2.868,7.051
			c-1.912,1.923-4.231,2.885-6.959,2.885c-2.856,0-5.23-0.987-7.12-2.962c-1.891-1.975-2.835-4.322-2.835-7.039
			c0-1.82,0.439-3.493,1.32-5.02c0.88-1.527,2.091-2.736,3.631-3.629C39.127,46.645,40.786,46.199,42.565,46.199z M42.526,49.744
			c-1.762,0-3.242,0.613-4.442,1.837c-1.2,1.225-1.8,2.782-1.8,4.671c0,2.104,0.755,3.769,2.267,4.994
			c1.174,0.958,2.521,1.437,4.04,1.437c1.719,0,3.182-0.621,4.391-1.863s1.813-2.773,1.813-4.593c0-1.812-0.609-3.345-1.826-4.6
			C45.75,50.372,44.27,49.744,42.526,49.744z"/>
	</g>
</g>
</svg>
