<?xml version="1.0" encoding="utf-8"?>
<!-- Generator: Adobe Illustrator 19.0.0, SVG Export Plug-In . SVG Version: 6.00 Build 0)  -->
<svg version="1.1" id="Layer_1" xmlns="http://www.w3.org/2000/svg" xmlns:xlink="http://www.w3.org/1999/xlink" x="0px" y="0px"
	 viewBox="0 0 40 30" style="enable-background:new 0 0 40 30;" xml:space="preserve">
<style type="text/css">
	.st0{fill:#D71920;}
</style>
<path class="st0" d="M29.2,15.6l-4.4,5.2c-0.2,0.3-0.6,0.3-0.8,0c-0.2-0.3-0.2-0.7,0-1l3.3-3.8H10.5v-1v-1h16.8L24,10.2
	c-0.2-0.3-0.2-0.7,0-1s0.6-0.3,0.8,0l4.4,5.2c0.2,0,0.3,0.2,0.3,0.4v0.5C29.5,15.4,29.4,15.6,29.2,15.6z"/>
</svg>
