<?xml version="1.0" encoding="utf-8"?>
<!-- Generator: Adobe Illustrator 19.0.0, SVG Export Plug-In . SVG Version: 6.00 Build 0)  -->
<svg version="1.1" id="Layer_1" xmlns="http://www.w3.org/2000/svg" xmlns:xlink="http://www.w3.org/1999/xlink" x="0px" y="0px"
	 viewBox="0 0 30 28" style="enable-background:new 0 0 30 28;" xml:space="preserve">
<style type="text/css">
	.st0{fill-rule:evenodd;clip-rule:evenodd;fill:#9D9FA2;}
</style>
<path id="XMLID_13_" class="st0" d="M27,18.1c0,4.4-3.6,7.9-8.1,7.9c-2.7,0-5-1.3-6.5-3.2c0,0.2,0.1,0.2,0.1,0.2h-8
	C3.7,23,3,22.4,3,21.5v-15C3,5.7,3.7,5,4.5,5h1.5V3.9C6.1,2.8,6.9,2,8,2h0.8c1.1,0,1.9,0.8,1.9,1.9V5h4.6V3.9c0-1,0.9-1.9,1.9-1.9
	H18c1.1,0,1.9,0.8,1.9,1.9V5h1.5C22.3,5,23,5.7,23,6.5v4.8C25.4,12.6,27,15.2,27,18.1z M8.8,21.5h2.1l0.1-2.7c0-0.2,0-0.4,0-0.7H8.8
	V21.5z M8.8,17.4h2.2c0.1-1.4,0.6-2.7,1.4-3.8H8.8V17.4z M4.5,21.5H8v-3.4H4.5V21.5z M4.5,17.4H8v-3.8H4.5V17.4z M4.5,9.5v3.4H8V9.5
	H4.5z M9.1,3.9c0-0.2-0.2-0.4-0.4-0.4H8c-0.2,0-0.4,0.2-0.4,0.4v3.4c0,0.2,0.2,0.4,0.4,0.4h0.8c0.2,0,0.4-0.2,0.4-0.4V3.9z
	 M12.6,9.5H8.8v3.4h3.8V9.5z M13.4,9.5v2.9c1-1,2.4-1.7,3.8-2V9.5H13.4z M18.4,3.9c0-0.2-0.2-0.4-0.4-0.4h-0.8
	c-0.2,0-0.4,0.2-0.4,0.4v3.4c0,0.2,0.2,0.4,0.4,0.4H18c0.2,0,0.4-0.2,0.4-0.4V3.9z M21.4,9.5H18v0.8c0.3,0,0.6-0.1,1-0.1
	c0.9,0,1.7,0.1,2.5,0.4V9.5z M18.9,12.5c-3.1,0-5.7,2.5-5.7,5.6c0,3.1,2.6,5.6,5.7,5.6s5.7-2.5,5.7-5.6C24.7,15,22.1,12.5,18.9,12.5
	z M20,19.4h-3.4c-0.2,0-0.3-0.1-0.3-0.3v-0.7c0-0.2,0.1-0.3,0.3-0.3h2.4v-3.6c0-0.2,0.1-0.3,0.3-0.3H20c0.2,0,0.3,0.1,0.3,0.3v4.6
	C20.3,19.3,20.1,19.4,20,19.4z"/>
</svg>
